3 6 4 8 1 5 9 7 2 10 4 7 8 10 5 3 2 6 9 1 7 6 2 5 3 1 9 10 8 4 6 8 10 5 9 3 7 4 2 1 3 9 1 8 7 2 5 6 10 4
6 7 10 8 4 5 9 2 1 3 1 9 7 8 6 5 3 10 4 2 5 4 9 6 1 10 2 8 3 7 8 4 1 2 7 10 5 6 3 9 6 1 3 10 8 4 2 9 5 7
7 9 5 6 8 1 3 10 2 4 10 6 7 3 8 9 4 2 1 5 4 5 8 10 9 7 3 2 1 6 2 6 1 8 7 3 4 5 9 10 9 5 7 6 2 4 10 1 8 3
6 10 5 8 9 7 2 1 3 4 4 1 2 8 5 6 7 10 3 9 8 2 9 6 1 3 5 10 7 4 4 3 1 8 2 6 5 10 7 9 2 5 6 9 3 7 4 1 10 8
2 10 5 8 9 6 4 7 3 1 1 3 5 9 10 4 6 8 2 7 6 8 5 4 9 2 3 1 7 10 8 9 4 2 7 3 6 1 10 5 10 3 8 2 5 7 6 9 1 4
3 6 4 8 1 5 9 7 2 10 4 7 8 10 5 3 2 6 9 1 7 6 2 5 3 1 9 10 8 4 6 8 10 5 9 3 7 4 2 1 3 9 1 8 7 2 5 6 10 4
6 7 10 8 4 5 9 2 1 3 1 9 7 8 6 5 3 10 4 2 5 4 9 6 1 10 2 8 3 7 8 4 1 2 7 10 5 6 3 9 6 1 3 10 8 4 2 9 5 7
7 9 5 6 8 1 3 10 2 4 10 6 7 3 8 9 4 2 1 5 4 5 8 10 9 7 3 2 1 6 2 6 1 8 7 3 4 5 9 10 9 5 7 6 2 4 10 1 8 3
6 10 5 8 9 7 2 1 3 4 4 1 2 8 5 6 7 10 3 9 8 2 9 6 1 3 5 10 7 4 4 3 1 8 2 6 5 10 7 9 2 5 6 9 3 7 4 1 10 8
2 10 5 8 9 6 4 7 3 1 1 3 5 9 10 4 6 8 2 7 6 8 5 4 9 2 3 1 7 10 8 9 4 2 7 3 6 1 10 5 10 3 8 2 5 7 6 9 1 4